{
	"$schema": "http://json-schema.org/draft-07/schema#",
	"$id": "https://parallel-launcher.ca/layout/advanced-02/schema.json",
	"title": "Advanced Parallel Star Layout Schema",
	"type": "object",
	"properties": {
		"$schema": {
			"type": "string",
			"const": "https://parallel-launcher.ca/layout/advanced-02/schema.json"
		},
		"format": {
			"type": "object",
			"properties": {
				"save_type": {
					"type": "string",
					"enum": [ "EEPROM", "SRAM", "FlashRAM", "MemPak", "Multi" ],
					"default": "EEPROM"
				},
				"num_slots": {
					"type": "integer",
					"minimum": 1
				},
				"slots_start": {
					"type": "integer",
					"minimum": 0
				},
				"slot_size": {
					"type": "integer",
					"minimum": 1
				},
				"active_bit": {
					"type": "integer",
					"minimum": 0
				},
				"checksum_offset": {
					"type": [ "integer", "null" ],
					"minimum": 1
				}
			},
			"required": [ "num_slots", "slots_start", "slot_size", "active_bit", "checksum_offset" ]
		},
		"groups": {
			"type": "array",
			"minItems": 1,
			"items": {
				"type": "object",
				"properties": {
					"name": {
						"type": "string"
					},
					"side": {
						"type": "string",
						"enum": [ "left", "right", "top", "bottom" ]
					},
					"optional": {
						"type": "boolean",
						"default": false
					},
					"collectedIcon": { "type": "string" },
					"missingIcon": { "type": "string" },
					"courses": {
						"type": "array",
						"items": {
							"type": "object",
							"properties": {
								"name": {
									"type": "string"
								},
								"optional": {
									"type": "boolean"
								},
								"collectedIcon": { "type": "string" },
								"missingIcon": { "type": "string" },
								"data": {
									"type": "array",
									"minItems": 1,
									"items": {
										"type": "object",
										"properties": {
											"offset": {
												"type": "integer",
												"minimum": 0
											},
											"mask": {
												"type": "integer",
												"minimum": 1,
												"maximum": 255
											},
											"optional": {
												"type": "boolean"
											},
											"collectedIcon": { "type": "string" },
											"missingIcon": { "type": "string" }
										},
										"required": [ "offset", "mask" ]
									}
								}
							},
							"required": [ "data" ]
						}
					}
				},
				"required": [ "name", "side", "courses" ]
			}
		},
		"collectedIcon": {
			"type": "string",
			"default": "Default::Star"
		},
		"missingIcon": {
			"type": "string",
			"default": "~Default::Star"
		},
		"icons": {
			"type": "object",
			"propertyNames": {
				"pattern": "^(?!Default::|~).+$"
			},
			"additionalProperties": {
				"type": "string",
				"pattern": "[a-zA-Z0-9+/]+={0,2}",
				"maxLength": 6828
			}
		}
	},
	"required": [ "$schema", "format", "groups" ]
}
